<svg width="12" height="18" viewBox="0 0 12 18" fill="none" xmlns="http://www.w3.org/2000/svg">
<path fill-rule="evenodd" clip-rule="evenodd" d="M11.1298 1.01226C10.5843 0.388809 9.63665 0.325632 9.0132 0.871156L1.0132 7.87116C0.687676 8.15599 0.500956 8.56748 0.500956 9.00002C0.500956 9.43256 0.687676 9.84405 1.0132 10.1289L9.0132 17.1289C9.63665 17.6744 10.5843 17.6112 11.1298 16.9878C11.6753 16.3643 11.6122 15.4167 10.9887 14.8712L4.27884 9.00002L10.9887 3.12889C11.6122 2.58336 11.6753 1.63572 11.1298 1.01226Z" fill="white"/>
</svg>
