<svg width="15" height="12" viewBox="0 0 15 12" fill="none" xmlns="http://www.w3.org/2000/svg">
<path d="M4.06762 2.392H2.70412V1.3296C2.70452 0.977098 2.83818 0.639155 3.07578 0.389899C3.31338 0.140642 3.63552 0.000423426 3.97153 0H13.7326C14.0686 0.000423426 14.3907 0.140642 14.6283 0.389899C14.8659 0.639155 14.9996 0.977098 15 1.3296V7.7424C14.9996 8.0949 14.8659 8.43285 14.6283 8.6821C14.3907 8.93136 14.0686 9.07158 13.7326 9.072H12.8007V7.6432H13.6319V1.4288H4.06762V2.392ZM0 10.8896V4.4768C0 4.1823 0.111517 3.89987 0.310017 3.69163C0.508518 3.48339 0.777742 3.3664 1.05846 3.3664H10.8195C11.1002 3.3664 11.3695 3.48339 11.568 3.69163C11.7665 3.89987 11.878 4.1823 11.878 4.4768V10.8896C11.878 11.1841 11.7665 11.4665 11.568 11.6748C11.3695 11.883 11.1002 12 10.8195 12H1.05846C0.919465 12 0.781827 11.9713 0.653408 11.9155C0.524989 11.8597 0.408305 11.7779 0.310017 11.6748C0.111517 11.4665 0 11.1841 0 10.8896ZM10.6274 9.6336C10.6274 9.59371 10.6122 9.55546 10.5854 9.52725C10.5585 9.49904 10.522 9.4832 10.484 9.4832H8.70717C8.66914 9.4832 8.63268 9.49904 8.60579 9.52725C8.57891 9.55546 8.5638 9.59371 8.5638 9.6336V9.9216C8.5638 9.96149 8.57891 9.99974 8.60579 10.0279C8.63268 10.0562 8.66914 10.072 8.70717 10.072H10.484C10.522 10.072 10.5585 10.0562 10.5854 10.0279C10.6122 9.99974 10.6274 9.96149 10.6274 9.9216V9.6336ZM6.78698 5.7328C6.78698 5.77269 6.80209 5.81094 6.82898 5.83915C6.85586 5.86735 6.89233 5.8832 6.93035 5.8832H10.484C10.522 5.8832 10.5585 5.86735 10.5854 5.83915C10.6122 5.81094 10.6274 5.77269 10.6274 5.7328V5.4448C10.6274 5.40491 10.6122 5.36666 10.5854 5.33845C10.5585 5.31025 10.522 5.2944 10.484 5.2944H6.93035C6.89233 5.2944 6.85586 5.31025 6.82898 5.33845C6.80209 5.36666 6.78698 5.40491 6.78698 5.4448V5.7328ZM6.78698 7.1296C6.78698 7.16949 6.80209 7.20774 6.82898 7.23595C6.85586 7.26415 6.89233 7.28 6.93035 7.28H10.484C10.522 7.28 10.5585 7.26415 10.5854 7.23595C10.6122 7.20774 10.6274 7.16949 10.6274 7.1296V6.8416C10.6274 6.80171 10.6122 6.76346 10.5854 6.73525C10.5585 6.70705 10.522 6.6912 10.484 6.6912H6.93035C6.89233 6.6912 6.85586 6.70705 6.82898 6.73525C6.80209 6.76346 6.78698 6.80171 6.78698 6.8416V7.1296ZM6.78698 8.5264C6.78698 8.56629 6.80209 8.60454 6.82898 8.63275C6.85586 8.66095 6.89233 8.6768 6.93035 8.6768H10.484C10.522 8.6768 10.5585 8.66095 10.5854 8.63275C10.6122 8.60454 10.6274 8.56629 10.6274 8.5264V8.24C10.6274 8.20011 10.6122 8.16186 10.5854 8.13365C10.5585 8.10544 10.522 8.0896 10.484 8.0896H6.93035C6.89233 8.0896 6.85586 8.10544 6.82898 8.13365C6.80209 8.16186 6.78698 8.20011 6.78698 8.24V8.5264ZM1.27809 10.2416C1.27809 10.2985 1.29962 10.353 1.33795 10.3932C1.37627 10.4334 1.42826 10.456 1.48246 10.456H6.09761C6.15181 10.456 6.2038 10.4334 6.24212 10.3932C6.28045 10.353 6.30198 10.2985 6.30198 10.2416V9.7136C6.30183 9.63513 6.28506 9.55768 6.25288 9.48684C6.2207 9.416 6.17392 9.35355 6.11591 9.304C5.66191 8.92083 5.17002 8.58987 4.6487 8.3168C4.64095 8.31289 4.6344 8.30676 4.62981 8.29912C4.62523 8.29147 4.62279 8.28263 4.62278 8.2736V7.76C4.69391 7.63547 4.74251 7.49824 4.76614 7.3552C4.82105 7.3552 4.89273 7.2704 4.97051 6.9824C5.07727 6.5888 4.97051 6.5312 4.86833 6.5408C4.88611 6.48871 4.89988 6.4352 4.90951 6.3808C5.07117 5.36 4.5999 5.3248 4.5999 5.3248C4.52927 5.20329 4.4279 5.1047 4.30707 5.04C4.12862 4.93156 3.92187 4.8856 3.71683 4.9088C3.63686 4.9127 3.5578 4.92832 3.48195 4.9552C3.38972 4.98859 3.30244 5.03545 3.22267 5.0944C3.12493 5.15927 3.03527 5.23667 2.95577 5.3248C2.81484 5.46996 2.71505 5.65329 2.66751 5.8544C2.63015 6.02444 2.63015 6.20116 2.66751 6.3712C2.67713 6.4256 2.6909 6.47911 2.70869 6.5312C2.61413 6.5216 2.50127 6.5792 2.60651 6.9728C2.68429 7.2592 2.75902 7.3408 2.81088 7.3456C2.83437 7.49193 2.8835 7.63244 2.95577 7.76V8.272C2.95576 8.28103 2.95332 8.28987 2.94873 8.29752C2.94415 8.30516 2.9376 8.31129 2.92984 8.3152C2.40852 8.58827 1.91664 8.91923 1.46263 9.3024C1.40463 9.35195 1.35785 9.4144 1.32567 9.48524C1.29349 9.55607 1.27671 9.63353 1.27656 9.712L1.27809 10.2416Z" fill="#3971FF"/>
</svg>
