<svg width="29" height="28" viewBox="0 0 29 28" fill="none" xmlns="http://www.w3.org/2000/svg">
<path fill-rule="evenodd" clip-rule="evenodd" d="M14.5 1.16675C7.41246 1.16675 1.66663 6.91258 1.66663 14.0001C1.66663 21.0876 7.41246 26.8334 14.5 26.8334C21.5875 26.8334 27.3333 21.0876 27.3333 14.0001C27.3333 6.91258 21.5875 1.16675 14.5 1.16675ZM20.0626 11.8301C20.1651 11.713 20.243 11.5766 20.292 11.4289C20.3409 11.2813 20.3598 11.1253 20.3476 10.9702C20.3354 10.8151 20.2923 10.6641 20.2208 10.5259C20.1493 10.3877 20.0509 10.2652 19.9314 10.1656C19.8119 10.0661 19.6737 9.99137 19.5249 9.94599C19.3761 9.9006 19.2197 9.88544 19.065 9.90138C18.9102 9.91732 18.7602 9.96405 18.6238 10.0388C18.4874 10.1136 18.3673 10.2149 18.2706 10.3367L13.254 16.3556L10.6581 13.7586C10.4381 13.5461 10.1434 13.4285 9.83749 13.4311C9.5316 13.4338 9.23898 13.5565 9.02267 13.7728C8.80636 13.9891 8.68366 14.2817 8.68101 14.5876C8.67835 14.8935 8.79594 15.1882 9.00846 15.4082L12.5085 18.9082C12.6231 19.0228 12.7603 19.1122 12.9114 19.1708C13.0626 19.2294 13.2242 19.2559 13.3861 19.2485C13.548 19.2412 13.7066 19.2001 13.8518 19.1281C13.9969 19.0561 14.1255 18.9546 14.2293 18.8301L20.0626 11.8301Z" fill="#262626"/>
</svg>
