<svg width="32" height="28" viewBox="0 0 32 28" fill="none" xmlns="http://www.w3.org/2000/svg">
<g clip-path="url(#clip0_1715_3708)">
<path d="M13.6423 11.3257C13.6423 10.7241 14.1313 10.2319 14.7289 10.2319H15.5982C16.2447 10.2319 16.7337 10.7241 16.7337 11.3257V15.0444H16.951C17.5486 15.0444 18.0376 15.5366 18.0376 16.1382C18.0376 16.789 17.5486 17.2319 16.951 17.2319H14.2942C13.6966 17.2319 13.2076 16.789 13.2076 16.1382C13.2076 15.5366 13.6966 15.0444 14.2942 15.0444H14.5116V12.4468C14.0661 12.3429 13.6423 11.9054 13.6423 11.3257ZM2.6437 4.32732C6.97598 5.51787 11.3115 4.40717 15.6471 3.29482C20.3738 2.0824 25.1005 0.869434 29.8272 2.64568C30.7454 2.99076 31.2941 3.91662 31.2941 4.90318V21.8476C31.2941 23.1546 29.9033 24.0187 28.6482 23.6741C24.3181 22.4819 19.9826 23.5921 15.6471 24.7023C10.8714 25.9163 6.14473 27.1304 1.46528 25.353C0.54656 25.0085 0 24.0843 0 23.0944V6.15225C0 4.84467 1.39139 3.98279 2.6437 4.32732ZM6.90535 22.7499C6.90535 20.8194 5.39769 19.2499 3.42823 19.2499V22.7499H6.90535ZM3.42823 12.2007C5.39769 12.2007 6.90535 10.6804 6.90535 8.70069H3.42823V12.2007ZM27.817 19.2499V15.7007C25.8991 15.7007 24.3399 17.3194 24.3399 19.2499H27.817ZM27.817 5.20068H24.3399C24.3399 7.18037 25.8991 8.70069 27.817 8.70069V5.20068ZM15.5982 7.82569C12.7187 7.82569 10.3825 10.6147 10.3825 13.9507C10.3825 17.3851 12.7187 20.1249 15.5982 20.1249C18.5266 20.1249 20.8627 17.3851 20.8627 13.9507C20.8627 10.6147 18.5266 7.82569 15.5982 7.82569Z" fill="black"/>
</g>
<defs>
<clipPath id="clip0_1715_3708">
<rect width="31.2941" height="28" fill="white"/>
</clipPath>
</defs>
</svg>
